<?xml version="1.0" encoding="utf-8"?>
<!-- Generator: Adobe Illustrator 16.0.0, SVG Export Plug-In . SVG Version: 6.00 Build 0)  -->
<!DOCTYPE svg PUBLIC "-//W3C//DTD SVG 1.1//EN" "http://www.w3.org/Graphics/SVG/1.1/DTD/svg11.dtd">
<svg version="1.1" id="Layer_1" xmlns="http://www.w3.org/2000/svg" xmlns:xlink="http://www.w3.org/1999/xlink" x="0px" y="0px"
	 width="960px" height="560px" viewBox="0 0 960 560" enable-background="new 0 0 960 560" xml:space="preserve">
<g id="Layer_2">
</g>
<g>
	<g>
		<g>
			<g id="Layer_1_2_">
				<g>
					<path fill="#00ADEF" d="M398.753,199.878l44.15,6.039l-0.293-5.126c-0.199-3.335-3.059-5.895-6.393-5.695l-42.881,2.478
						L398.753,199.878z"/>
					<path fill="#00ADEF" d="M455.048,211.455c-0.488-0.208-1.008-0.35-1.555-0.425l-10.373-1.415l-31.675-4.336l32.21,13.711
						l14.039,5.975l0.975-7.112C459.06,215.083,457.501,212.499,455.048,211.455z"/>
					<path fill="#00ADEF" d="M460.201,261.474c-0.338-0.75-0.83-1.419-1.457-1.989c-0.486-0.431-1.041-0.798-1.678-1.068
						l-0.145-0.062l-0.111-0.047l-1.729-0.735l-6.227-2.652l-25.004-10.642c-3.075-1.309-6.633,0.125-7.942,3.2l-1.181,2.774
						l-0.734,1.728l-0.735,1.727l-2.627,6.173c-1.31,3.075,0.125,6.633,3.2,7.941l33.07,14.076l0.145,0.062
						c0.635,0.271,1.283,0.417,1.934,0.468c0.84,0.068,1.668-0.052,2.441-0.328c1.547-0.54,2.875-1.713,3.566-3.34l5.279-12.401
						C460.958,264.731,460.884,262.962,460.201,261.474z M430.001,262.11c-0.654,1.537-2.434,2.254-3.972,1.601l-1.848-0.788
						c-1.539-0.654-2.256-2.434-1.602-3.972l0.788-1.849c0.38-0.893,1.129-1.508,1.999-1.73c0.634-0.162,1.326-0.146,1.973,0.131
						l0.467,0.198l1.383,0.587c1.537,0.655,2.254,2.435,1.598,3.973L430.001,262.11L430.001,262.11z"/>
					<g>
						<path fill="#808284" d="M409.633,251.401l0.734-1.728l1.633-3.832c1.091-2.563,3.106-4.456,5.491-5.454
							c2.116-0.889,4.524-1.074,6.841-0.392c0.385,0.112,0.774,0.25,1.154,0.412l28.435,12.102l1.727,0.736l1.729,0.734l1.18,0.503
							l6.473-15.21c1.322-3.07-0.111-6.629-3.188-7.938l-1.27-0.54l-1.729-0.735l-1.727-0.735l-13.182-5.609L395.5,203.1
							l-6.352-2.703l-5.348-2.276l-0.992-0.422l-3.319-1.413c-1.762-0.75-3.678-0.604-5.248,0.24
							c-0.72,0.391-1.365,0.919-1.885,1.58c-0.321,0.416-0.608,0.873-0.821,1.374l-0.284,0.669l-2.703,6.352l-23.432,55.054
							c-1.311,3.075,0.124,6.634,3.199,7.942l82.353,35.055c3.074,1.309,6.633-0.125,7.941-3.201l6.615-15.544l-33.059-14.072
							c-5.225-2.225-7.664-8.276-5.439-13.503l2.172-5.103L409.633,251.401z M397.744,247.145c-0.977,1.512-2.096,1.999-3.359,1.462
							l-25.756-10.962c-0.422,3.65,0.59,7.011,3.035,10.082c1.565,1.516,3.166,2.62,4.798,3.314
							c1.893,0.807,4.316,1.117,7.273,0.937l0.719,0.306c1.337,0.903,1.751,1.954,1.242,3.15l-0.153,0.36
							c-0.852,2.001-4.368,2.137-10.545,0.407l-0.85-0.36c-6.006-2.558-9.621-7.411-10.843-14.563
							c-0.33-3.275,0.123-6.36,1.355-9.255c2.603-6.115,7.571-9.759,14.907-10.929c3.4-0.197,6.341,0.231,8.822,1.287
							c6.441,2.742,10.144,7.93,11.11,15.563c0.201,2.913-0.297,5.772-1.491,8.581L397.744,247.145L397.744,247.145z"/>
						<path fill="#808284" d="M387.244,227.792l-1.339-0.57c-3.918-1.667-7.953-1.122-12.108,1.633
							c-1.519,1.153-2.696,2.438-3.53,3.857l23.47,9.989c0.714-1.676,0.656-4.258-0.172-7.746
							C391.961,231.292,389.855,228.903,387.244,227.792z"/>
					</g>
				</g>
			</g>
			<path fill="#808284" d="M391.381,296.608C388.332,319.352,378,339.865,363,355.841v-24.533c0-21.29-15.074-39.849-37.049-45.02
				l-12.697-3.034l-21.263,17.655c-0.236,0.192-0.44,0.372-0.683,0.547c0.801,0.749,1.401,1.723,1.684,2.863l2.385,9.881
				c0.893,3.671-1.863,7.152-5.627,7.204l7.343,67.858c-4.04,0.463-8.146,0.725-12.308,0.725c-4.795,0-9.508-0.348-14.141-0.96
				l7.315-67.626c-3.761-0.049-6.519-3.522-5.627-7.201l2.389-9.881c0.271-1.141,0.86-2.114,1.661-2.863
				c-0.247-0.175-0.484-0.354-0.722-0.547l-21.326-17.655l-12.929,3.034C219.426,291.459,204,310.018,204,331.305v22.001
				c-17-18.983-26.91-43.851-26.91-71.062c0-50.771,35.295-93.422,82.637-104.762c-3.49,2.636-7.242,5.943-9.841,9.328
				c-6.449,6.859-10.837,18.008-11.526,36.066c-4.166,1.589-7.433,5.606-6.623,15.46c0.854,10.295,6.225,14.682,11.875,15.576
				c7.633,18.584,22.697,33.905,40.531,33.905c17.868,0,32.97-15.392,40.587-34.04c5.374-1.148,10.327-5.588,11.134-15.438
				c0.668-8.061-1.401-12.216-4.456-14.33c8.479-34.544-14.896-41.303-14.896-41.303s-1.113-1.889-3.325-4.378
				c18.531,5.071,35.088,14.974,48.222,28.264l6.621-14.229c-21.876-20.273-51.135-32.688-83.242-32.688
				c-67.584,0-122.571,54.983-122.571,122.568c0,67.586,54.987,122.569,122.571,122.569c60.471,0,110.756-44.016,120.698-101.688
				L391.381,296.608z M304.918,197.854c9.204,9.172,13.99,20.762,16.433,29.363c0,0.254,0.005,0.496,0.005,0.745
				c0.004,23.188-16.593,51.187-37.215,51.187s-37.222-27.998-37.222-51.18c0-3.178,0.102-6.125,0.298-8.854
				C277.373,220.433,295.209,208.339,304.918,197.854z"/>
		</g>
		<path fill="#00ADEF" d="M413.437,382.761l-16.063,18.477c34.502,29.956,84.034,31.676,120.151,7.156l15.889,23.057l10.012-54.378
			l-54.376-10.01l14.583,21.167C476.482,406.572,439.315,405.264,413.437,382.761z"/>
		<path fill="#00ADEF" d="M507.635,150.255l-14.585,21.167l54.38-10.01l-10.012-54.378l-15.889,23.057
			c-36.118-24.52-85.651-22.8-120.153,7.156l16.063,18.477C443.317,133.221,480.484,131.913,507.635,150.255z"/>
	</g>
	<g>
		<g>
			<path fill="#FBB03B" d="M661.833,160.573c-67.428,0-122.283,54.856-122.283,122.284c0,67.431,54.855,122.286,122.283,122.286
				c67.432,0,122.291-54.855,122.291-122.286C784.124,215.429,729.265,160.573,661.833,160.573z M596.453,368.098h130.764
				c-18.133,13.939-40.801,22.253-65.384,22.253C637.251,390.351,614.583,382.037,596.453,368.098z M743.074,353.128
				c-0.961-0.421-2.016-0.668-3.132-0.668H583.681c-1.104,0-2.15,0.234-3.104,0.646c-16.322-18.854-26.234-43.409-26.234-70.25
				c0-59.27,48.223-107.492,107.491-107.492c59.273,0,107.499,48.226,107.499,107.492
				C769.332,309.709,759.411,334.27,743.074,353.128z"/>
			<path fill="#FBB03B" d="M730.163,332.149h-1.942v-70.324h1.942c2.167,0,3.907-1.753,3.907-3.906c0-2.156-1.747-3.904-3.907-3.904
				H593.446c-2.16,0-3.905,1.748-3.905,3.904c0,2.152,1.749,3.906,3.905,3.906h1.951v70.324h-1.951c-4.319,0-7.816,3.5-7.816,7.816
				c0,4.312,3.497,7.818,7.816,7.818h136.717c4.318,0,7.818-3.507,7.818-7.818C737.981,335.649,734.481,332.149,730.163,332.149z
				 M634.459,332.149h-23.438v-70.324h23.438V332.149z M673.517,332.149h-23.432v-70.324h23.432V332.149z M712.584,332.149h-23.438
				v-70.324h23.438V332.149z"/>
			<path fill="#FBB03B" d="M742.543,231.783l-77.528-34.887c-2.037-0.912-4.364-0.912-6.406,0l-78.133,35.158
				c-3.363,1.515-5.21,5.163-4.435,8.767c0.769,3.597,3.954,6.171,7.64,6.171h156.247c0.032,0,0.059,0,0.084,0
				c4.318,0,7.8-3.499,7.8-7.814C747.812,235.744,745.612,232.837,742.543,231.783z"/>
		</g>
	</g>
</g>
</svg>
