BBPS,URBAN,Web,Revenue,Single,140114,9447355000,MK01006kn464,-,1622340,236,0,236,4/7/2018 23:58,4/7/2018 23:59,J SARALA,99XXXX3931,AJAY.TOF@GMAIL.COM,787673672
BBPS,RURAL,Web,Revenue,Single,140037,460163000,MK01006kn3z4,-,1622276,2049,0,2049,4/7/2018 23:53,4/7/2018 23:54,BOLARKRISHNA,97XXXX4961,-,6172925796
BBPS,RURAL,Web,Revenue,Single,140028,3653304197,VB019JGC57FH,-,1557304,117,0,117,4/7/2018 7:43,4/7/2018 7:43,MAHADEV & MAHADEVAMMA,9901405740,-,1039459017
