{
	"status": "Success",
	"code": "S00",
	"message": "Airline Names Response",
	"details": [{
		"id": 1,
		"created": 1501093321000,
		"lastModified": 1501093321000,
		"cityCode": "BOM",
		"cityName": "Mumbai",
		"airportName": "Chhatrapati Shivaji International Airport",
		"new": false
	}, {
		"id": 2,
		"created": 1501093321000,
		"lastModified": 1501093321000,
		"cityCode": "DEL",
		"cityName": "New Delhi",
		"airportName": "Indira Gandhi International Airport",
		"new": false
	}, {
		"id": 3,
		"created": 1501093321000,
		"lastModified": 1501093321000,
		"cityCode": "BKK",
		"cityName": "Bangkok",
		"airportName": "Suvarnabhumi Airport",
		"new": false
	}, {
		"id": 4,
		"created": 1501093321000,
		"lastModified": 1501093321000,
		"cityCode": "BLR",
		"cityName": "Bangalore",
		"airportName": "Bengaluru International Airport",
		"new": false
	}, {
		"id": 5,
		"created": 1501093321000,
		"lastModified": 1501093321000,
		"cityCode": "PNQ",
		"cityName": "Pune",
		"airportName": "Pune Airport",
		"new": false
	}, {
		"id": 6,
		"created": 1501093321000,
		"lastModified": 1501093321000,
		"cityCode": "HYD",
		"cityName": "Hyderabad",
		"airportName": "Rajiv Gandhi International Airport",
		"new": false
	}, {
		"id": 7,
		"created": 1501093321000,
		"lastModified": 1501093321000,
		"cityCode": "CCU",
		"cityName": "Kolkata",
		"airportName": "Netaji Subhash Chandra Bose International Airport",
		"new": false
	}, {
		"id": 8,
		"created": 1501093321000,
		"lastModified": 1501093321000,
		"cityCode": "MAA",
		"cityName": "Chennai",
		"airportName": "Madras,Chennai International Airport",
		"new": false
	}, {
		"id": 9,
		"created": 1501093321000,
		"lastModified": 1501093321000,
		"cityCode": "GOI",
		"cityName": "Goa",
		"airportName": "Dabolim Goa International Airport",
		"new": false
	}, {
		"id": 10,
		"created": 1501093321000,
		"lastModified": 1501093321000,
		"cityCode": "DXB",
		"cityName": "Dubai",
		"airportName": "Dubai International Airport",
		"new": false
	}, {
		"id": 11,
		"created": 1501093322000,
		"lastModified": 1501093322000,
		"cityCode": "SIN",
		"cityName": "Singapore",
		"airportName": "Changi Airport",
		"new": false
	}, {
		"id": 12,
		"created": 1501093322000,
		"lastModified": 1501093322000,
		"cityCode": "KTM",
		"cityName": "Kathmandu",
		"airportName": "Tribhuvan International Airport",
		"new": false
	}, {
		"id": 13,
		"created": 1501093322000,
		"lastModified": 1501093322000,
		"cityCode": "AUH",
		"cityName": "Abu Dhabi",
		"airportName": "Abu Dhabi International Airport",
		"new": false
	}, {
		"id": 14,
		"created": 1501093322000,
		"lastModified": 1501093322000,
		"cityCode": "SHJ",
		"cityName": "Sharjah",
		"airportName": "Sharjah International Airport",
		"new": false
	}, {
		"id": 15,
		"created": 1501093322000,
		"lastModified": 1501093322000,
		"cityCode": "NYC",
		"cityName": "New York",
		"airportName": "All Airports",
		"new": false
	}]
}